<?xml version="1.0" encoding="UTF-8"?>
<svg width="64px" height="60px" viewBox="0 0 64 60" version="1.1" xmlns="http://www.w3.org/2000/svg" xmlns:xlink="http://www.w3.org/1999/xlink">
    <title>ind-2</title>
    <g id="Home-" stroke="none" stroke-width="1" fill="none" fill-rule="evenodd">
        <g id="Home-Page-5" transform="translate(-541.000000, -3284.000000)" fill-rule="nonzero">
            <g id="ind-2" transform="translate(541.366071, 3284.000000)">
                <g id="Group_74" transform="translate(0.633929, 0.000000)">
                    <path d="M17.960431,30.384 C17.2330397,29.6536037 16.2314864,29.2670725 15.2042678,29.320309 C14.1770492,29.3735455 13.2204301,29.8615608 12.5717586,30.6632727 C11.4144963,32.1973189 11.5854399,34.3588441 12.9693103,35.6901818 L16.9611207,39.6981818 C17.7484835,40.4889532 17.7484835,41.7710468 16.9611207,42.5618182 C16.1737578,43.3525895 14.8971904,43.3525895 14.1098276,42.5618182 L10.2331552,38.6683636 C8.76447174,37.1967306 7.90423148,35.2217325 7.82503448,33.1396364 L7.85653448,23.6825455 C7.85658672,22.5648169 7.3848975,21.4994463 6.55851192,20.7507952 C5.73212634,20.002144 4.62849845,19.6403805 3.52148276,19.7552727 C1.46749616,20.0400131 -0.0480998518,21.8253227 -0.00325862069,23.9072727 L-0.00325862069,33.6349091 C-0.00218313035,35.8715839 0.787010948,38.0357081 2.22455172,39.744 L11.0521552,50.2374545 C11.2012712,50.4148766 11.4205634,50.5174166 11.6517414,50.5178182 L27.7927759,50.540728 C28.0015339,50.540728 28.2018405,50.457932 28.3495567,50.3097809 C28.4972729,50.1616299 28.5802759,49.960571 28.5802759,49.7509091 L28.5802759,44.9683636 C28.5802759,42.4561418 27.5865799,40.0468159 25.8180517,38.2701818 L17.960431,30.384 Z M58.9799483,19.7563636 C57.8727557,19.6411408 56.7688309,20.0027549 55.9421966,20.7514437 C55.1155624,21.5001326 54.6437263,22.5656971 54.6438103,23.6836364 L54.6742241,33.1407273 C54.5953177,35.2226722 53.7354744,37.1976498 52.2671897,38.6694545 L48.3905172,42.5629091 C47.6031544,43.3536804 46.326587,43.3536804 45.5392241,42.5629091 C44.7518613,41.7721377 44.7518613,40.4900441 45.5392241,39.6992727 L49.5299483,35.6912727 C50.9138187,34.3599351 51.0847623,32.1984098 49.9275,30.6643636 C49.2788285,29.8626517 48.3222094,29.3746364 47.2949908,29.3213999 C46.2677722,29.2681634 45.2662189,29.6546946 44.5388276,30.3850909 L36.6812069,38.2767273 C34.9125776,40.0532935 33.9189828,42.4626634 33.9189828,44.9749091 L33.9189828,49.7574545 C33.9189828,49.9671165 34.0019857,50.1681753 34.1497019,50.3163264 C34.2974181,50.4644774 34.4977247,50.5472735 34.7064828,50.5472735 L50.8475172,50.5243636 C51.0787281,50.5241109 51.2980796,50.4215432 51.4471034,50.244 L60.2747069,39.7505455 C61.712083,38.0421575 62.5012542,35.8780959 62.5025172,33.6414545 L62.5025172,23.9138182 C62.5521753,21.8303874 61.0383947,20.0407106 58.9832069,19.7530909 L58.9799483,19.7563636 Z" id="Path_143" fill="#465366"></path>
                    <path d="M28.218569,54.9043636 L12.0775345,54.9043636 C11.6432101,54.9043636 11.2911207,55.2579773 11.2911207,55.6941818 L11.2911207,58.8523636 C11.2911207,59.0617363 11.3740092,59.2625176 11.5215217,59.4104641 C11.6690342,59.5584105 11.8690645,59.6413805 12.0775345,59.6410917 L28.218569,59.6410917 C28.4270389,59.6413805 28.6270692,59.5584105 28.7745817,59.4104641 C28.9220942,59.2625176 29.0049828,59.0617363 29.0049828,58.8523636 L29.0049828,55.6941818 C29.0049828,55.2579773 28.6528933,54.9043636 28.218569,54.9043636 Z M50.4315,54.9043629 L34.2904655,54.9043629 C34.0818072,54.9040736 33.8816119,54.9871932 33.7340681,55.1353758 C33.5865243,55.2835583 33.5037629,55.4846202 33.504051,55.6941818 L33.504051,58.8523636 C33.504051,59.0617363 33.5869402,59.2625176 33.7344527,59.4104641 C33.8819652,59.5584105 34.0819956,59.6413805 34.2904655,59.6410917 L50.4315,59.6410917 C50.8654005,59.6410917 51.2173145,59.2881421 51.2179138,58.8523636 L51.2179138,55.6941818 C51.2179138,55.4845199 51.1349108,55.283461 50.9871946,55.13531 C50.8394784,54.9871589 50.6391718,54.904074 50.4304138,54.9043629 L50.4315,54.9043629 Z M47.4487759,15.7876364 C47.4487759,7.06776307 40.4103911,-0.00109090909 31.7281034,-0.00109090909 C23.0458158,-0.00109090909 16.007431,7.06776307 16.007431,15.7876364 C16.007431,24.5075097 23.0458158,31.5763636 31.7281034,31.5763636 C40.4095427,31.5757612 47.4470898,24.5077485 47.4476897,15.7887273 L47.4487759,15.7876364 Z M30.7309655,12.9894545 L34.3621552,14.8658182 C36.410822,15.9049348 37.5419842,18.1673087 37.1482759,20.4381818 C36.8821587,22.2339587 35.6840146,23.7515274 34.0037069,24.4210909 L34.0037069,25.0832727 C34.0037069,26.1731816 33.1239696,27.0567273 32.0387586,27.0567273 C30.9535477,27.0567273 30.0738103,26.1731816 30.0738103,25.0832727 L30.0738103,24.5552727 C28.2821097,24.0186123 26.8181889,22.7140677 26.0743966,20.9912727 C25.7858569,20.3431339 25.8662077,19.5892873 26.2848111,19.0171752 C26.7034144,18.4450631 27.3957439,18.1428747 28.097814,18.2258347 C28.799884,18.3087947 29.4034726,18.7641151 29.678431,19.4181818 C30.0934193,20.3732155 31.0692601,20.9554586 32.1028448,20.8647273 L32.2809828,20.8429091 C32.8030897,20.7629462 33.2069266,20.3412628 33.2661724,19.8141818 C33.3765886,19.2300906 33.0891989,18.6430387 32.5612241,18.3741818 L28.9322069,16.4978182 C26.8543289,15.4316783 25.7289861,13.1138713 26.1721552,10.8130909 C26.51991,8.77221723 28.0607821,7.14451788 30.0727241,6.69272727 L30.0727241,6.13309091 C30.0727241,5.04318206 30.9524614,4.15963636 32.0376724,4.15963636 C33.1228834,4.15963636 34.0026207,5.04318206 34.0026207,6.13309091 L34.0026207,7.10836364 C35.4364837,7.75533661 36.5786221,8.91603341 37.2058448,10.3636364 C37.500672,11.0128954 37.4235429,11.7714306 37.0041291,12.3474344 C36.5847154,12.9234381 35.8883582,13.2271737 35.1829453,13.1417944 C34.4775324,13.0564151 33.8729616,12.5952223 33.6018103,11.9356364 C33.1839451,10.984201 32.2114506,10.4034341 31.179569,10.4890909 C30.6001158,10.5208223 30.1224687,10.9568024 30.0357931,11.5330909 C29.9060342,12.1211024 30.19249,12.722157 30.7298793,12.9894545 L30.7309655,12.9894545 Z" id="Path_144" fill="#2A9D8F"></path>
                </g>
            </g>
        </g>
    </g>
</svg>