<?xml version="1.0" encoding="UTF-8"?>
<svg width="40px" height="63px" viewBox="0 0 40 63" version="1.1" xmlns="http://www.w3.org/2000/svg" xmlns:xlink="http://www.w3.org/1999/xlink">
    <title>ind-4</title>
    <g id="Home-" stroke="none" stroke-width="1" fill="none" fill-rule="evenodd">
        <g id="Home-Page-5" transform="translate(-1117.000000, -3280.000000)">
            <g id="ind-4" transform="translate(1117.000000, 3280.000000)">
                <path d="M18.3334121,15 L13.5834713,15 C12.7090981,15 12,15.7090981 12,16.5834713 L12,21.3334121 C12,22.2077853 12.7090981,22.916647 13.5834713,22.916647 L18.3334121,22.916647 C19.2077853,22.916647 19.916647,22.2077853 19.916647,21.3334121 L19.916647,16.5834713 C19.916647,15.7090981 19.2077853,15 18.3334121,15 Z M18.3334121,26.083353 L13.5834713,26.083353 C12.7090981,26.083353 12,26.7924512 12,27.6668243 L12,32.4167652 C12,33.2911383 12.7090981,34 13.5834713,34 L18.3334121,34 C19.2077853,34 19.916647,33.2911383 19.916647,32.4167652 L19.916647,27.6668243 C19.916647,26.7924512 19.2077853,26.083353 18.3334121,26.083353 Z M29.4167652,15 L24.6668243,15 C23.7924512,15 23.083353,15.7090981 23.083353,16.5834713 L23.083353,21.3334121 C23.083353,22.2077853 23.7924512,22.916647 24.6668243,22.916647 L29.4167652,22.916647 C30.2911383,22.916647 31,22.2077853 31,21.3334121 L31,16.5834713 C31,15.7090981 30.2911383,15 29.4167652,15 L29.4167652,15 Z" id="Fill-59" fill="#2A9D8F"></path>
                <path d="M33.3332504,0 L6.66650074,0 C2.98468086,0 0,2.9689584 0,6.63163107 L0,56.3683689 C0,60.030794 2.98468086,63 6.66650074,63 L33.3332504,63 C37.0153191,63 40,60.030794 40,56.3683689 L40,6.63163107 C40,2.9689584 37.0153191,0 33.3332504,0 Z M21.666563,58.8552925 L18.3331881,58.8552925 C16.4924027,58.8552925 14.9998133,57.3705657 14.9998133,55.5394769 C14.9998133,53.7081406 16.4924027,52.2236614 18.3331881,52.2236614 L21.666563,52.2236614 C23.5075973,52.2236614 24.9999378,53.7081406 24.9999378,55.5394769 C24.9999378,57.3705657 23.5075973,58.8552925 21.666563,58.8552925 Z M33.3332504,46.4209223 C33.3332504,47.3364667 32.5868313,48.0789539 31.6666874,48.0789539 L8.33331259,48.0789539 C7.41291985,48.0789539 6.66650074,47.3364667 6.66650074,46.4209223 L6.66650074,11.6052306 C6.66650074,10.6899338 7.41291985,9.9474466 8.33331259,9.9474466 L31.6666874,9.9474466 C32.5868313,9.9474466 33.3332504,10.6899338 33.3332504,11.6052306 L33.3332504,46.4209223 L33.3332504,46.4209223 Z" id="Fill-60" fill="#465366"></path>
            </g>
        </g>
    </g>
</svg>