<?xml version="1.0" encoding="UTF-8"?>
<svg width="158px" height="69px" viewBox="0 0 158 69" version="1.1" xmlns="http://www.w3.org/2000/svg" xmlns:xlink="http://www.w3.org/1999/xlink">
    <title>Group_112</title>
    <g id="Symbols" stroke="none" stroke-width="1" fill="none" fill-rule="evenodd">
        <g id="footer-4" transform="translate(-223.000000, -611.000000)" fill="#FFFFFF">
            <g id="Group_112" transform="translate(223.000000, 611.000000)">
                <path d="M31.3919961,20.0329777 L31.3919961,38.284 L38.6,38.284 L38.6,16.3823589 C38.6,16.3823589 35.7926285,0.284 19.9739709,0.284 C4.15531323,0.284 0.6,14.3229292 0.6,19.2850359 C0.6,24.2471427 4.43708631,40.4387353 23.8048416,37.7245976 L22.5410065,30.808726 L19.1721607,30.9848342 L18.4345783,35.5429281 L14.9600676,35.1285559 C14.9600676,35.1285559 15.1672537,30.705133 13.1699798,29.1615966 C11.172706,27.6180603 7.99032768,24.9971563 7.99032768,17.6026849 C7.99032768,17.6026849 9.48828308,7.68054326 19.5927485,7.68054326 C29.6972139,7.68054326 31.3919961,17.2256062 31.3919961,20.0329777 Z" id="Path_239"></path>
                <path d="M50.8080039,19.8315135 L50.8080039,68.284 L43.6,68.284 L43.6,16.2181355 C43.6,16.2181355 46.4073715,0.284 62.2260291,0.284 C78.0446868,0.284 81.6,14.1797146 81.6,19.0912017 C81.6,24.0026887 77.7629137,40.0291069 58.3951584,37.3426568 L59.6589935,30.4973357 L63.0278393,30.6716474 L63.7654217,35.183243 L67.2399324,34.773098 C67.2399324,34.773098 67.0327463,30.3947995 69.0300202,28.8670091 C71.027294,27.3392188 74.2096723,24.7450513 74.2096723,17.4260127 C74.2096723,17.4260127 72.7117169,7.6050893 62.6072515,7.6050893 C52.5027861,7.6050893 50.8080039,17.0527807 50.8080039,19.8315135 Z" id="Path_240"></path>
                <path d="M104.349997,30.7000485 L104.083106,35.2295057 L107.560953,35.5650964 C108.134022,33.6636062 109.345317,32.0089829 110.997422,30.8708947 C115.831675,29.3342623 119.125082,24.9311378 119.175846,19.9367402 C119.175846,11.3944319 125.438453,1.284 139.831899,1.284 C154.225344,1.284 165.815409,21.7733364 150.019239,34.4525625 L145.626931,28.7576903 C148.415138,26.6357341 150.094708,23.4013403 150.20751,19.9367402 C150.060096,14.7394937 146.513228,10.2315536 141.433239,8.78496017 L141.373241,8.75648581 L141.640131,4.22702857 L138.30297,4.0561824 C137.729901,5.95767263 136.518607,7.61229594 134.866501,8.75038416 C134.866501,8.75038416 126.748077,11.7829036 126.60739,19.9143674 C126.466704,28.0458313 120.299267,39.2362551 105.249975,38.2193136 C90.2006829,37.2023722 81.229865,16.4425293 96.5605294,4.59109361 L100.673534,10.3795244 C97.7971743,12.7825317 96.042071,16.2347696 95.8136509,19.938774 C95.6842926,25.0681705 99.2580299,29.5733733 104.349997,30.7000485 Z" id="Path_241"></path>
            </g>
        </g>
    </g>
</svg>