<?xml version="1.0" encoding="UTF-8"?>
<svg width="73px" height="85px" viewBox="0 0 73 85" version="1.1" xmlns="http://www.w3.org/2000/svg" xmlns:xlink="http://www.w3.org/1999/xlink">
    <title>health-insurance</title>
    <g id="Services" stroke="none" stroke-width="1" fill="none" fill-rule="evenodd">
        <g id="Technology" transform="translate(-942.000000, -1199.000000)" fill-rule="nonzero">
            <g id="Group" transform="translate(229.000000, 1199.000000)">
                <g id="health-insurance" transform="translate(713.000000, 0.000000)">
                    <path d="M72.0775146,23.0118031 L72.0760234,22.9309454 C72.0359259,20.8157212 71.9979825,18.817807 71.9979825,16.895614 C71.9979825,13.9837427 69.6290838,11.6148441 66.7172125,11.6148441 C55.4504873,11.6148441 46.8994542,8.4025731 39.806345,1.50580897 C37.7419883,-0.501881092 34.5075146,-0.502046784 32.4433236,1.50564327 C25.3505458,8.4025731 16.8003411,11.6148441 5.5352729,11.6148441 C2.62340156,11.6148441 0.254502924,13.9837427 0.254502924,16.895614 C0.254502924,18.8588986 0.215896686,20.8766959 0.17497076,23.01346 C-0.0155750487,32.9882846 -0.252680312,45.4022612 3.91331384,56.6706433 C6.20400585,62.8668616 9.67243665,68.2515205 14.2223392,72.6751657 C19.4043567,77.7133626 26.1915984,81.7098538 34.3948441,84.5532943 C34.952729,84.7468226 35.5346394,84.8449123 36.1246686,84.8449123 C36.7153606,84.8449123 37.2976023,84.7466569 37.8541618,84.55346 C46.0585673,81.7096881 52.846306,77.7131969 58.0288207,72.6748343 C62.5790546,68.2510234 66.0479825,62.8661988 68.3388402,56.6698148 C72.5051657,45.40077 72.2680604,32.9866277 72.0775146,23.0118031 L72.0775146,23.0118031 Z M63.6762671,54.9461209 C59.2827778,66.8290546 50.3037622,74.9774561 36.2245809,79.8574172 C36.1602924,79.8796199 36.0897076,79.880117 36.0230994,79.8569201 C21.9464035,74.9776218 12.9682164,66.8295517 8.57538986,54.947115 C4.73498051,44.5588889 4.95253411,33.162924 5.14457115,23.1084016 C5.18599415,20.9476121 5.22509747,18.9066179 5.22509747,16.895614 C5.22509747,16.7247856 5.36411306,16.5856043 5.53510721,16.5856043 C18.1772417,16.5856043 27.8286355,12.9262963 35.9086062,5.06918129 C35.9690838,5.01036062 36.0467934,4.98086745 36.1245029,4.98086745 C36.2022125,4.98086745 36.2800877,5.01052632 36.340731,5.06934698 C44.4211988,12.9262963 54.0734211,16.5856043 66.7170468,16.5856043 C66.8878752,16.5856043 67.0270565,16.7247856 67.0270565,16.895614 C67.0270565,18.8650292 67.0653314,20.885809 67.1060916,23.0252242 L67.1075828,23.1064133 L67.1075828,23.1065789 C67.2997856,33.1612671 67.5173392,44.5573977 63.6762671,54.9461209 L63.6762671,54.9461209 Z" id="Shape" fill="#414C58"></path>
                    <path d="M51.569152,34.1521053 L43.5720273,34.1521053 L43.5720273,26.1539864 C43.5720273,24.7813938 42.4592398,23.6686062 41.0866472,23.6686062 L31.1673294,23.6686062 C29.7947368,23.6686062 28.6819493,24.7813938 28.6819493,26.1539864 L28.6819493,34.1521053 L20.6833333,34.1521053 C19.3107407,34.1521053 18.1979532,35.2648928 18.1979532,36.6374854 L18.1979532,46.5568031 C18.1979532,47.9293957 19.3107407,49.0421832 20.6833333,49.0421832 L28.6819493,49.0421832 L28.6819493,57.0401365 C28.6819493,58.412729 29.7947368,59.5255166 31.1673294,59.5255166 L41.0866472,59.5255166 C42.4592398,59.5255166 43.5720273,58.412729 43.5720273,57.0401365 L43.5720273,49.0421832 L51.5693177,49.0421832 C52.9419103,49.0421832 54.0546979,47.9293957 54.0546979,46.5568031 L54.0546979,36.6374854 C54.0546979,35.2647271 52.9417446,34.1521053 51.569152,34.1521053 L51.569152,34.1521053 Z M49.0839376,44.071423 L41.0866472,44.071423 C39.7140546,44.071423 38.6012671,45.1842105 38.6012671,46.5568031 L38.6012671,54.5547563 L33.6527096,54.5547563 L33.6527096,46.5568031 C33.6527096,45.1842105 32.539922,44.071423 31.1673294,44.071423 L23.1687135,44.071423 L23.1687135,39.1228655 L31.1673294,39.1228655 C32.539922,39.1228655 33.6527096,38.010078 33.6527096,36.6374854 L33.6527096,28.6393665 L38.6012671,28.6393665 L38.6012671,36.6374854 C38.6012671,38.010078 39.7140546,39.1228655 41.0866472,39.1228655 L49.0839376,39.1228655 L49.0839376,44.071423 L49.0839376,44.071423 Z" id="Shape" fill="#2A9D8F"></path>
                </g>
            </g>
        </g>
    </g>
</svg>